chunk_output_type: console
…
# Filter NAs
library(dplyr)
good <- !(is.na(data$steps))
data2 <- data[good,]

Total number of steps taken per day

steps_total <- data2 %>% group_by(date) %>% summarise(total = sum(steps))

## `summarise()` ungrouping output (override with `.groups` argument)

steps_total

## # A tibble: 53 x 2
##    date       total
##    <date>     <int>
##  1 2012-10-02   126
##  2 2012-10-03 11352
##  3 2012-10-04 12116
##  4 2012-10-05 13294
##  5 2012-10-06 15420
##  6 2012-10-07 11015
##  7 2012-10-09 12811
##  8 2012-10-10  9900
##  9 2012-10-11 10304
## 10 2012-10-12 17382
## # ... with 43 more rows
…
Daily activity pattern

Creating a series plot

First, the data needs to be aggregated by the mean for each interval

library(ggplot2)
data_plot <- (data2 %>% group_by(interval) 
    %>% summarise(mean_steps = mean(steps)) 
    %>% print)

## `summarise()` ungrouping output (override with `.groups` argument)

## # A tibble: 288 x 2
##    interval mean_steps
##       <int>      <dbl>
##  1        0     1.72  
##  2        5     0.340 
##  3       10     0.132 
##  4       15     0.151 
##  5       20     0.0755
##  6       25     2.09  
##  7       30     0.528 
##  8       35     0.868 
##  9       40     0     
## 10       45     1.47  
## # ... with 278 more rows
…
Creating a series plot by each level

data_plot2 <- (new_data %>% group_by(weekdays,interval) 
    %>% summarise(mean_steps = mean(steps)) 
    %>% print)

## `summarise()` regrouping output by 'weekdays' (override with `.groups` argument)

## # A tibble: 576 x 3
## # Groups:   weekdays [2]
##    weekdays interval mean_steps
##    <fct>       <int>      <dbl>
##  1 weekday         0     2.25  
##  2 weekday         5     0.445 
##  3 weekday        10     0.173 
##  4 weekday        15     0.198 
##  5 weekday        20     0.0990
##  6 weekday        25     1.59  
##  7 weekday        30     0.693 
##  8 weekday        35     1.14  
##  9 weekday        40     0     
## 10 weekday        45     1.80  
## # ... with 566 more rows
…
